{
  "parent": "block/grass_block",
  "textures": {
    "bottom": "upsd:blocks/upside_down_dirt",
    "top": "upsd:blocks/upside_down_grass_top",
    "side": "upsd:blocks/upside_down_grass_side",
    "overlay": "upsd:blocks/upside_down_grass_side_overlay",
    "particle": "upsd:blocks/upside_down_dirt"
  }
}